-qYC2%Ps2u1%s%uN0%I0p3DaK0H0%kf2A25000%f#f -F "Mozilla/4.5 (compatible; HTTrack 3.0x; Windows 98)" -%F "<!-- Mirrored from %s%s by HTTrack Website Copier/3.x [XR&CO'2014], %s -->" -%l "en, *" -Y http://ioc%40ttdh%2ecom:Admin%21%40%23qwe@103.21.148.134:8106/ -O1 "C:\Users\Hanbit\Desktop\uybanphongchongthientai" +*.css +*.js -ad.doubleclick.net/* -mime:application/foobar +*.gif +*.jpg +*.jpeg +*.png +*.tif +*.bmp +*.zip +*.tar +*.tgz +*.gz +*.rar +*.z +*.exe +*.mov +*.mpg +*.mpeg +*.avi +*.asf +*.mp3 +*.mp2 +*.rm +*.wav +*.vob +*.qt +*.vid +*.ac3 +*.wma +*.wmv
File generated automatically on Thu, 09 May 2019 21:52:41, do NOT edit

To update a mirror, just launch httrack without any parameters
The existing cache will be used (and modified)
To have other options, retype all parameters and launch HTTrack
To continue an interrupted mirror, just launch httrack without any parameters

